{
    "criterias": [
        "Audited?",
        "Available on Linux?",
        "Available on Mac?",
        "Available on Windows?",
        "Available on Android?",
        "Available on iOS?",
        "Can act as 2FA app?",
        "Cloud based?",
        "Cost?"
    ],
    "tools": {
        "bitwarden": {
            "name": "Bitwarden",
            "values": {
                "Audited?": "Yes",
                "Available on Linux?": "Yes",
                "Available on Mac?": "Yes",
                "Available on Windows?": "Yes",
                "Available on Android?": "Yes",
                "Available on iOS?": "Yes",
                "Can act as 2FA app?": "Yes",
                "Cloud based?": "Yes",
                "Cost?": "Freemium"
            }
        },
        "keepass": {
            "name": "KeePass",
            "values": {
                "Audited?": "Depends on the client",
                "Available on Linux?": "Yes",
                "Available on Mac?": "Yes",
                "Available on Windows?": "Yes",
                "Available on Android?": "Yes",
                "Available on iOS?": "Yes",
                "Can act as 2FA app?": "Depends on the client",
                "Cloud based?": "No",
                "Cost?": "Free"
            }
        }
    }
}
